// Jest Snapshot v1, https://goo.gl/fbAQLP

exports[`DownloadXML.vue renders expected output 1`] = `
<div
  class="download-container"
>
  <label
    for="input-url"
  >
    Digite a URL do arquivo: 
  </label>
   
  <input
    id="input-url"
    type="text"
  />
</div>
`;
