<?xml version="1.0" encoding="UTF-8"?>
<!DOCTYPE svg PUBLIC "-//W3C//DTD SVG 1.1//EN" "http://www.w3.org/Graphics/SVG/1.1/DTD/svg11.dtd">
<!-- Creator: CorelDRAW 2019 (64 Bit) -->
<svg xmlns="http://www.w3.org/2000/svg" xml:space="preserve" width="163.342mm" height="38.9055mm" version="1.1" style="shape-rendering:geometricPrecision; text-rendering:geometricPrecision; image-rendering:optimizeQuality; fill-rule:evenodd; clip-rule:evenodd"
viewBox="0 0 18131.83 4318.73"
 xmlns:xlink="http://www.w3.org/1999/xlink">
  <defs>
    <style type="text/css">
    <![CDATA[
      .green-stroke {stroke:#28BFBA;stroke-width:99.91;stroke-miterlimit:22.9256}
      .blue-stroke {stroke:#3757A8;stroke-width:99.91;stroke-miterlimit:22.9256}
      .purple-stroke {stroke:#765DA9;stroke-width:99.91;stroke-miterlimit:22.9256}
      .red-stroke {stroke:#E15B64;stroke-width:99.91;stroke-miterlimit:22.9256}
      .yellow-stroke {stroke:#FCD562;stroke-width:99.91;stroke-miterlimit:22.9256}
      .fill-none {fill:none}
      .fill-grey {fill:#454343}
    ]]>
    </style>
  </defs>
  <g id="tanana-logo">
    <g class="tanana-lines">
      <line class="fill-none yellow-stroke" x1="65.67" y1="1227.23" x2="18131.83" y2= "1227.23" />
      <line class="fill-none red-stroke" x1="-0" y1="2004.26" x2="18131.83" y2= "2004.26" />
      <line class="fill-none purple-stroke" x1="-0" y1="2670.29" x2="18131.83" y2= "2670.29" />
      <line class="fill-none green-stroke" x1="-0" y1="3447.32" x2="18131.83" y2= "3447.32" />
      <line class="fill-none blue-stroke" x1="-0" y1="4268.78" x2="18131.83" y2= "4268.78" />
    </g>
    <g class="tanana-text">
      <g class="tanana-text-ta">
        <path class="fill-grey" d="M2827.61 2269.88l0 1450.29c0,109.7 20.15,183.99 60.61,222.95 40.39,38.96 93.74,58.44 160.21,58.44 17.32,0 38.96,-3.56 64.9,-10.82 25.98,-7.16 46.16,-10.82 60.61,-10.82 25.98,0 48.29,10.82 67.1,32.47 18.75,21.65 28.17,46.96 28.17,75.76 0,40.46 -23.14,74.33 -69.27,101.74 -46.22,27.47 -101.07,41.13 -164.51,41.13 -77.93,0 -147.19,-7.16 -207.8,-21.65 -60.58,-14.42 -119.02,-57.71 -175.33,-129.88 -56.25,-72.13 -84.42,-187.59 -84.42,-346.34l0 -1463.28 -316 0c-34.63,0 -64.27,-11.49 -88.75,-34.63 -24.54,-23.04 -36.8,-51.95 -36.8,-86.58 0,-34.63 12.26,-63.47 36.8,-86.58 24.48,-23.08 54.12,-34.63 88.75,-34.63l316 0 0 -480.54c0,-37.46 12.26,-68.53 36.8,-93.08 24.48,-24.48 55.51,-36.8 93.08,-36.8 37.46,0 68.53,12.32 93.08,36.8 24.48,24.54 36.77,55.61 36.77,93.08l0 480.54 432.92 0c31.74,0 59.88,12.99 84.42,38.96 24.48,25.98 36.8,54.85 36.8,86.58 0,34.63 -11.59,62.77 -34.63,84.42 -23.11,21.65 -51.98,32.47 -86.62,32.47l-432.89 0z"/>
        <path class="fill-grey" d="M5751.93 2057.74c24.48,25.98 36.8,57.75 36.8,95.24l0 1948.15c0,37.53 -12.32,68.6 -36.8,93.08 -24.54,24.54 -55.58,36.8 -93.08,36.8 -37.53,0 -68.6,-12.26 -93.08,-36.8 -24.54,-24.48 -36.77,-55.51 -36.77,-93.08l0 -290.06c-72.2,129.88 -180.43,239.57 -324.69,329.02 -144.36,89.51 -301.65,134.21 -471.88,134.21 -193.42,0 -367.32,-50.45 -521.67,-151.52 -154.45,-101 -275.64,-239.54 -363.65,-415.6 -88.12,-176 -132.07,-373.74 -132.07,-593.1 0,-219.29 44.72,-416.27 134.21,-590.94 89.45,-174.6 211.4,-310.94 365.82,-409.11 154.35,-98.07 325.39,-147.19 512.98,-147.19 173.17,0 331.88,41.89 476.25,125.55 144.26,83.75 252.49,193.42 324.69,329.02l0 -268.41c0,-37.46 12.22,-69.27 36.77,-95.24 24.48,-25.98 55.55,-38.96 93.08,-38.96 37.53,0 68.57,12.99 93.11,38.96zm-588.74 1855.07c119.75,-79.32 213.56,-188.99 281.4,-329.02 67.77,-139.97 101.74,-296.55 101.74,-469.72 0,-167.34 -33.97,-320.36 -101.74,-458.9 -67.84,-138.53 -161.65,-247.46 -281.4,-326.86 -119.82,-79.36 -254.72,-119.05 -404.78,-119.05 -150.09,0 -285.06,38.96 -404.75,116.89 -119.82,77.93 -213.63,185.49 -281.4,322.53 -67.84,137.14 -101.77,292.22 -101.77,465.39 0,173.17 33.17,329.75 99.57,469.72 66.37,140.03 159.45,249.7 279.23,329.02 119.75,79.42 256.09,119.05 409.11,119.05 150.02,0 284.96,-39.63 404.78,-119.05z"/>
      </g>
      <g class="tanana-text-na-1">
        <path class="fill-grey" d="M8102.66 2202.77c125.58,157.35 188.32,365.82 188.32,625.57l0 1272.79c0,37.53 -12.99,68.6 -38.96,93.08 -25.98,24.54 -56.28,36.8 -90.91,36.8 -37.53,0 -68.6,-12.26 -93.08,-36.8 -24.54,-24.48 -36.77,-55.51 -36.77,-93.08l0 -1259.8c0,-187.59 -46.96,-339.84 -140.73,-456.73 -93.81,-116.89 -238.84,-175.33 -435.05,-175.33 -124.15,0 -241.77,28.87 -352.83,86.58 -111.16,57.75 -201.34,134.94 -270.58,231.61 -69.27,96.71 -103.9,201.31 -103.9,313.87l0 1259.8c0,37.53 -12.32,68.6 -36.8,93.08 -24.54,24.54 -55.61,36.8 -93.08,36.8 -37.53,0 -68.6,-12.26 -93.08,-36.8 -24.54,-24.48 -36.8,-55.51 -36.8,-93.08l0 -1939.49c0,-37.46 12.26,-68.53 36.8,-93.08 24.48,-24.48 55.55,-36.8 93.08,-36.8 37.46,0 68.53,12.32 93.08,36.8 24.48,24.54 36.8,55.61 36.8,93.08l0 238.11c77.93,-124.05 189.72,-227.28 335.48,-309.54 145.73,-82.26 295.05,-123.38 448.07,-123.38 268.44,0 465.42,78.69 590.94,235.94z"/>
        <path class="fill-grey" d="M10860.34 2057.74c24.48,25.98 36.8,57.75 36.8,95.24l0 1948.15c0,37.53 -12.32,68.6 -36.8,93.08 -24.54,24.54 -55.58,36.8 -93.08,36.8 -37.53,0 -68.6,-12.26 -93.08,-36.8 -24.54,-24.48 -36.77,-55.51 -36.77,-93.08l0 -290.06c-72.2,129.88 -180.43,239.57 -324.69,329.02 -144.36,89.51 -301.65,134.21 -471.88,134.21 -193.42,0 -367.32,-50.45 -521.67,-151.52 -154.45,-101 -275.64,-239.54 -363.65,-415.6 -88.12,-176 -132.07,-373.74 -132.07,-593.1 0,-219.29 44.72,-416.27 134.21,-590.94 89.45,-174.6 211.4,-310.94 365.82,-409.11 154.35,-98.07 325.39,-147.19 512.98,-147.19 173.17,0 331.88,41.89 476.25,125.55 144.26,83.75 252.49,193.42 324.69,329.02l0 -268.41c0,-37.46 12.22,-69.27 36.77,-95.24 24.48,-25.98 55.55,-38.96 93.08,-38.96 37.53,0 68.53,12.99 93.11,38.96zm-588.77 1855.07c119.75,-79.32 213.56,-188.99 281.4,-329.02 67.77,-139.97 101.74,-296.55 101.74,-469.72 0,-167.34 -33.97,-320.36 -101.74,-458.9 -67.84,-138.53 -161.65,-247.46 -281.4,-326.86 -119.82,-79.36 -254.72,-119.05 -404.78,-119.05 -150.09,0 -285.06,38.96 -404.75,116.89 -119.82,77.93 -213.63,185.49 -281.4,322.53 -67.84,137.14 -101.77,292.22 -101.77,465.39 0,173.17 33.17,329.75 99.57,469.72 66.37,140.03 159.45,249.7 279.23,329.02 119.75,79.42 256.09,119.05 409.11,119.05 150.06,0 284.96,-39.63 404.78,-119.05z"/>
      </g>
      <g class="tanana-text-na-2">
        <path class="fill-grey" d="M13211.07 2202.77c125.58,157.35 188.32,365.82 188.32,625.57l0 1272.79c0,37.53 -12.99,68.6 -38.96,93.08 -25.98,24.54 -56.28,36.8 -90.91,36.8 -37.53,0 -68.6,-12.26 -93.08,-36.8 -24.54,-24.48 -36.77,-55.51 -36.77,-93.08l0 -1259.8c0,-187.59 -46.96,-339.84 -140.73,-456.73 -93.81,-116.89 -238.84,-175.33 -435.05,-175.33 -124.15,0 -241.77,28.87 -352.83,86.58 -111.16,57.75 -201.34,134.94 -270.58,231.61 -69.27,96.71 -103.9,201.31 -103.9,313.87l0 1259.8c0,37.53 -12.32,68.6 -36.8,93.08 -24.54,24.54 -55.61,36.8 -93.08,36.8 -37.53,0 -68.6,-12.26 -93.08,-36.8 -24.54,-24.48 -36.8,-55.51 -36.8,-93.08l0 -1939.49c0,-37.46 12.26,-68.53 36.8,-93.08 24.48,-24.48 55.55,-36.8 93.08,-36.8 37.46,0 68.53,12.32 93.08,36.8 24.48,24.54 36.8,55.61 36.8,93.08l0 238.11c77.93,-124.05 189.72,-227.28 335.48,-309.54 145.73,-82.26 295.05,-123.38 448.07,-123.38 268.41,0 465.39,78.69 590.94,235.94z"/>
        <path class="fill-grey" d="M15968.72 2057.74c24.48,25.98 36.8,57.75 36.8,95.24l0 1948.15c0,37.53 -12.32,68.6 -36.8,93.08 -24.54,24.54 -55.58,36.8 -93.08,36.8 -37.53,0 -68.6,-12.26 -93.08,-36.8 -24.54,-24.48 -36.77,-55.51 -36.77,-93.08l0 -290.06c-72.2,129.88 -180.43,239.57 -324.69,329.02 -144.36,89.51 -301.65,134.21 -471.88,134.21 -193.42,0 -367.32,-50.45 -521.67,-151.52 -154.45,-101 -275.64,-239.54 -363.65,-415.6 -88.12,-176 -132.07,-373.74 -132.07,-593.1 0,-219.29 44.72,-416.27 134.21,-590.94 89.45,-174.6 211.4,-310.94 365.82,-409.11 154.35,-98.07 325.39,-147.19 512.98,-147.19 173.17,0 331.88,41.89 476.25,125.55 144.26,83.75 252.49,193.42 324.69,329.02l0 -268.41c0,-37.46 12.22,-69.27 36.77,-95.24 24.48,-25.98 55.55,-38.96 93.08,-38.96 37.53,0 68.57,12.99 93.11,38.96zm-588.74 1855.07c119.75,-79.32 213.56,-188.99 281.4,-329.02 67.77,-139.97 101.74,-296.55 101.74,-469.72 0,-167.34 -33.97,-320.36 -101.74,-458.9 -67.84,-138.53 -161.65,-247.46 -281.4,-326.86 -119.82,-79.36 -254.72,-119.05 -404.78,-119.05 -150.09,0 -285.06,38.96 -404.75,116.89 -119.82,77.93 -213.63,185.49 -281.4,322.53 -67.84,137.14 -101.77,292.22 -101.77,465.39 0,173.17 33.17,329.75 99.57,469.72 66.37,140.03 159.45,249.7 279.23,329.02 119.75,79.42 256.09,119.05 409.11,119.05 150.02,0 284.96,-39.63 404.78,-119.05z"/>
        <g class="tanana-note">
          <path class="fill-grey" d="M15746.13 2854.62l0 -1864.43c0,0 4.73,-34.27 4.73,-34.23 -218.86,148.66 -486.87,29.54 -682.02,-94.78 -154.95,-98.71 -423.16,-414.44 -625.31,-379.61 -189.75,32.67 -280.8,285.99 -319.7,433.95 -49.85,189.69 -34.43,391.76 44.76,572.82 18.08,41.29 36.3,87.08 60.38,125.65 28.81,46.16 66.7,91.81 58.88,149.19 -3.73,27.14 -15.22,47.09 -43.03,30.84 -21.51,-12.59 -39.9,-30.17 -56.65,-47.65 -78.29,-81.72 -133.44,-184.03 -182.73,-282.36 -1.43,-2.83 -2.83,-5.69 -4.26,-8.56 -9.39,-16.18 -17.22,-31.97 -22.41,-46.82 -104.5,-298.45 -59.58,-641.52 87.38,-921.36 188.92,-359.69 528.46,-594.63 957.46,-396.26 104.83,48.49 204.87,108.76 295.52,177.3 61.71,46.66 146.23,72.53 225.45,80.72 14.12,1.47 27.91,1.96 41.39,1.63 39.33,-14.42 71.77,-33.53 90.81,-74.16 13.25,-28.27 12.22,-55.05 16.85,-84.32 3.9,-24.58 5.56,-49.35 7.26,-74.13 1.4,-20.35 5.1,-47.82 5.1,-47.82 0,0 18.78,-70.23 150.59,-70.23 131.41,0 148.13,76.16 148.06,77.03l0 2889.99 -258.52 -112.39zm0 0l0 0 0 0z"/>
          <ellipse class="fill-grey" cx="14976.1" cy="3140.38" rx="832.54" ry="985.16"/>
        </g>
      </g>
    </g>
  </g>
</svg>
